<?xml version="1.0" encoding="UTF-8"?>
<svg width="221px" height="224px" viewBox="0 0 221 224" version="1.1" xmlns="http://www.w3.org/2000/svg" xmlns:xlink="http://www.w3.org/1999/xlink">
    <title>environtment@1x</title>
    <defs>
        <filter x="-83.8%" y="-83.8%" width="267.5%" height="267.5%" filterUnits="objectBoundingBox" id="filter-1">
            <feOffset dx="0" dy="15" in="SourceAlpha" result="shadowOffsetOuter1"></feOffset>
            <feGaussianBlur stdDeviation="27.5" in="shadowOffsetOuter1" result="shadowBlurOuter1"></feGaussianBlur>
            <feColorMatrix values="0 0 0 0 0.615686275   0 0 0 0 0.639215686   0 0 0 0 0.705882353  0 0 0 0.16 0" type="matrix" in="shadowBlurOuter1" result="shadowMatrixOuter1"></feColorMatrix>
            <feMerge>
                <feMergeNode in="shadowMatrixOuter1"></feMergeNode>
                <feMergeNode in="SourceGraphic"></feMergeNode>
            </feMerge>
        </filter>
    </defs>
    <g id="Page-1" stroke="none" stroke-width="1" fill="none" fill-rule="evenodd">
        <g id="Category" transform="translate(-166.000000, -477.000000)" fill-rule="nonzero">
            <g id="1-copy-5" filter="url(#filter-1)" transform="translate(195.000000, 535.000000)">
                <g id="Group-10" transform="translate(37.000000, 29.000000)">
                    <g id="Icon" transform="translate(19.000000, 0.000000)">
                        <g id="environtment" transform="translate(14.000000, 12.000000)">
                            <path d="M4.47657031,6.25000391 C4.06234766,6.25000391 3.72658203,6.58582031 3.72658203,6.99999219 L3.72658203,7.99997656 C3.72658203,12.2733203 7.20321875,15.749957 11.4765625,15.749957 C11.8907852,15.749957 12.2265508,15.4141406 12.2265508,14.9999688 L12.2265508,13.9999844 C12.2265508,9.72664062 8.74991406,6.25000391 4.47657031,6.25000391 Z" id="Path" fill="#007D40"></path>
                            <path d="M15.4765508,0 C12.8574063,0 10.7265742,2.13083203 10.7265742,4.74997656 L10.7265742,7 L10.7265742,19 C10.7265742,19.4142305 11.0623906,19.7499961 11.4765625,19.7499961 C11.8907344,19.7499961 12.2265508,19.4141797 12.2265508,19 L12.2265508,7.69061719 C14.490582,7.32996875 16.2265391,5.36402344 16.2265391,3 L16.2265391,0.749988281 C16.2265391,0.335816406 15.8907734,0 15.4765508,0 Z" id="Path" fill="#2DA76C"></path>
                            <path d="M10.7265742,4.74997656 L10.7265742,6.99999219 L10.7265742,19.0000078 C10.7265742,19.4142305 11.0623906,19.7499961 11.4765625,19.7499961 L11.4765625,2.19065234 C11.0020117,2.92977344 10.7265742,3.80833984 10.7265742,4.74997656 Z" id="Path" fill="#2DA76C"></path>
                            <path d="M20.0078203,20.1250156 C19.6383789,20.1250156 19.2790508,20.1929102 18.9443516,20.3227578 C18.6783086,19.6724023 18.2304688,19.0845078 17.6285078,18.6087891 C16.7237383,17.8937383 15.5489141,17.4999805 14.3203125,17.4999805 C13.0408281,17.4999805 11.8247188,17.931875 10.9197461,18.6838437 C10.1360391,17.9313164 9.08583203,17.4999805 7.97656641,17.4999805 C6.15204687,17.4999805 4.57219141,18.6677969 3.97835547,20.3111289 C3.65228906,20.1888477 3.303625,20.1249648 2.9453125,20.1249648 C1.32554297,20.1249648 0.0078203125,21.4427383 0.0078203125,23.062457 C0.0078203125,24.6821758 1.32554297,26 2.9453125,26 L20.0078203,26 C21.627582,26 22.9453047,24.6822266 22.9453047,23.0625078 C22.9453047,21.4427891 21.627582,20.1250156 20.0078203,20.1250156 Z" id="Path" fill="#40BE81"></path>
                            <path d="M11.4765625,18.2856172 C11.2806484,18.4060195 11.094332,18.5388125 10.9197461,18.6838437 C10.1360391,17.9313164 9.08583203,17.4999805 7.97656641,17.4999805 C6.15204687,17.4999805 4.57219141,18.6677969 3.97835547,20.3111289 C3.65228906,20.1888477 3.303625,20.1249648 2.9453125,20.1249648 C1.32554297,20.1249648 0.0078203125,21.4427383 0.0078203125,23.062457 C0.0078203125,24.6821758 1.32554297,26 2.9453125,26 L11.4765625,26 L11.4765625,18.2856172 Z" id="Path" fill="#2DA76C"></path>
                        </g>
                    </g>
                </g>
            </g>
        </g>
    </g>
</svg>