<svg width="92" height="93" viewBox="0 0 92 93" fill="none" xmlns="http://www.w3.org/2000/svg">
<path d="M91 84.0589C91 88.4639 87.3767 92.0108 82.9076 92.0108H8.09237C3.62329 92.0004 0 88.4639 0 84.0589V37.1644C0 32.749 3.62329 29.1815 8.09237 31.6425H82.9181C87.3872 29.1815 91.0104 32.7593 91.0104 37.1644V84.0589H91Z" fill="#E87722"/>
<path d="M0 84.0585C0 86.0128 0.720482 87.8018 1.9004 89.1977L41.4538 64.1012L0.856225 33.6172C0.313253 34.6823 0 35.8921 0 37.164V84.0585Z" fill="#F3BB91"/>
<path d="M90.9997 84.0585C90.9997 86.0128 90.2792 87.8018 89.0993 89.1977L49.5459 64.1012L90.1539 33.6172C90.6969 34.6823 91.0101 35.8921 91.0101 37.164V84.0585H90.9997Z" fill="#F3BB91"/>
<path d="M2.16167 31.9627L40.7753 1.57177C40.7753 1.57177 42.7279 0 45.8291 0C48.7424 0 50.8829 1.57177 50.8829 1.57177L88.9536 32.0661C88.9536 32.0661 90.4468 33.2242 88.891 34.5271L50.8829 64.7836C50.8829 64.7836 48.9303 66.3554 45.8291 66.3554C42.9159 66.3554 40.7753 64.7836 40.7753 64.7836L0.856445 33.6172C0.856445 33.6172 1.23235 32.8416 2.16167 31.9627Z" fill="#E87722"/>
<path d="M45.8287 66.3449C48.9299 66.3449 50.8825 64.7731 50.8825 64.7731L72.6118 47.4734V33.8031C72.6118 29.9461 69.4584 26.8232 65.5636 26.8232H25.5716C21.6769 26.8232 18.5234 29.9461 18.5234 33.8031V47.4216L40.7644 64.7835C40.7748 64.7835 42.905 66.3449 45.8287 66.3449Z" fill="url(#paint0_linear)"/>
<path d="M58.2439 40.2455H32.766C31.7845 40.2455 30.9805 39.4493 30.9805 38.4773V38.1774C30.9805 37.2054 31.7845 36.4092 32.766 36.4092H58.2439C59.2254 36.4092 60.0295 37.2054 60.0295 38.1774V38.4773C60.019 39.4596 59.2254 40.2455 58.2439 40.2455Z" fill="#183028"/>
<path d="M58.2439 49.8305H32.766C31.7845 49.8305 30.9805 49.0343 30.9805 48.0622V47.7624C30.9805 46.7904 31.7845 45.9941 32.766 45.9941H58.2439C59.2254 45.9941 60.0295 46.7904 60.0295 47.7624V48.0622C60.019 49.0446 59.2254 49.8305 58.2439 49.8305Z" fill="#183028"/>
<defs>
<linearGradient id="paint0_linear" x1="18.5246" y1="46.5862" x2="72.609" y2="46.5862" gradientUnits="userSpaceOnUse">
<stop stop-color="white"/>
<stop offset="1" stop-color="#EBEBEB"/>
</linearGradient>
</defs>
</svg>
