<svg width="82" height="82" viewBox="0 0 82 82" fill="none" xmlns="http://www.w3.org/2000/svg">
<path d="M54.1649 73.2147H12.9306C9.89868 73.2147 7.32153 70.7134 7.32153 67.6056V14.3952C7.32153 11.3633 9.89868 8.78613 12.9306 8.78613H54.1649C57.2726 8.78613 59.774 11.3633 59.774 14.3952V67.5298C59.8498 70.7134 57.2726 73.2147 54.1649 73.2147Z" fill="#E87722"/>
<path d="M49.6169 49.793H17.5542C16.9478 49.793 16.4172 50.3994 16.4172 51.1573C16.4172 51.9153 16.9478 52.5217 17.5542 52.5217H49.6927C50.2991 52.5217 50.8297 51.9153 50.8297 51.1573C50.7539 50.3994 50.2233 49.793 49.6169 49.793Z" fill="white"/>
<path d="M49.6169 39.7866H17.5542C16.9478 39.7866 16.4172 40.393 16.4172 41.151C16.4172 41.909 16.9478 42.5154 17.5542 42.5154H49.6927C50.2991 42.5154 50.8297 41.909 50.8297 41.151C50.7539 40.393 50.2233 39.7866 49.6169 39.7866Z" fill="white"/>
<path d="M49.6169 29.7822H17.5542C16.9478 29.7822 16.4172 30.3886 16.4172 31.1466C16.4172 31.9046 16.9478 32.511 17.5542 32.511H49.6927C50.2991 32.511 50.8297 31.9046 50.8297 31.1466C50.7539 30.3886 50.2233 29.7822 49.6169 29.7822Z" fill="white"/>
<path d="M49.6169 19.7769H17.5542C16.9478 19.7769 16.4172 20.3832 16.4172 21.1412C16.4172 21.8992 16.9478 22.5056 17.5542 22.5056H49.6927C50.2991 22.5056 50.8297 21.8992 50.8297 21.1412C50.7539 20.3832 50.2233 19.7769 49.6169 19.7769Z" fill="white"/>
<path d="M31.5769 59.7227H17.7816C17.0236 59.7227 16.4172 60.329 16.4172 61.087C16.4172 61.845 17.0236 62.4514 17.7816 62.4514H31.5769C32.3349 62.4514 32.9413 61.845 32.9413 61.087C32.9413 60.329 32.3349 59.7227 31.5769 59.7227Z" fill="white"/>
<path d="M74.0237 45.0172V43.198V29.0995V28.9479C74.0237 26.3708 70.537 24.9306 68.5663 24.3242C66.5955 23.7178 60.001 21.9745 60.001 21.9745C58.8641 21.6713 57.7271 21.6713 56.6659 21.9745C56.6659 21.9745 50.6779 23.5662 47.7217 24.3242C44.8414 25.0822 42.2642 26.3708 42.2642 28.9479V43.1222V43.198V44.9414C42.2642 44.9414 42.0368 47.6701 44.9172 51.3842C46.2815 53.2034 48.1007 54.7193 50.0715 55.8563L54.1646 58.2819C56.6659 59.7978 59.7737 59.7978 62.3508 58.2819L66.4439 55.8563C68.4147 54.7193 70.158 53.2034 71.5982 51.3842C74.2511 47.7459 74.0237 45.0172 74.0237 45.0172Z" fill="#FBB684"/>
<path d="M58.1066 50.1717C64.1348 50.1717 69.0216 45.2849 69.0216 39.2568C69.0216 33.2286 64.1348 28.3418 58.1066 28.3418C52.0784 28.3418 47.1917 33.2286 47.1917 39.2568C47.1917 45.2849 52.0784 50.1717 58.1066 50.1717Z" fill="#183028"/>
<path d="M65.0038 36.1483C65.2312 35.8451 65.3828 35.5419 65.3828 35.1629C65.3828 34.3292 64.7006 33.647 63.8668 33.647C63.4878 33.647 63.1088 33.7986 62.8814 34.026L62.8056 34.1018L56.2112 40.6204L53.4824 37.8917C53.1792 37.6643 52.876 37.4369 52.4212 37.4369C51.5875 37.4369 50.9053 38.1191 50.9053 38.9529C50.9053 39.3318 51.0569 39.7108 51.3601 40.014L56.287 44.9409L65.0796 36.1483H65.0038Z" fill="#FBB684"/>
</svg>
