<svg width="51" height="50" viewBox="0 0 51 50" fill="none" xmlns="http://www.w3.org/2000/svg">
<ellipse cx="25.5" cy="25" rx="25.5" ry="25" fill="#E87722"/>
<path d="M37.9335 23.0513H36.8029V17.6183C37.2035 17.3029 37.5881 16.9621 37.9542 16.5961C40.372 14.1782 41.7036 10.9636 41.7036 7.54457V6.54565C41.7036 6.24431 41.4594 6 41.158 6H37.0474C36.7459 6 36.5017 6.24431 36.5017 6.54565C36.5017 6.847 36.7459 7.09131 37.0474 7.09131H40.6123V7.54457C40.6123 10.6721 39.3943 13.6126 37.1824 15.8245C34.971 18.0358 32.0305 19.2536 28.9025 19.2536C25.0484 19.2536 21.913 16.1185 21.913 12.2648C21.913 12.2559 21.9128 12.247 21.9124 12.2381C21.8459 10.8833 22.3242 9.5963 23.2594 8.61412C24.1944 7.63216 25.4562 7.09131 26.8123 7.09131H34.8647C35.1662 7.09131 35.4104 6.847 35.4104 6.54565C35.4104 6.24431 35.1662 6 34.8647 6H26.8123C25.1546 6 23.6122 6.66111 22.4691 7.86163C21.9242 8.43398 21.5078 9.0916 21.2283 9.8019C20.1481 8.66134 18.6459 8.00452 17.0358 8.00452H16.0803C12.8894 8.00452 10.2933 10.6006 10.2933 13.7915V13.8315C10.2933 16.2821 11.825 18.3802 13.9808 19.2227V23.0513H12.8509C11.8226 23.0513 10.8556 23.452 10.1281 24.1795C9.40066 24.9071 9 25.874 9 26.9022C9 29.0256 10.7275 30.7531 12.8509 30.7531H13.9807V31.8371C13.9807 32.0371 13.9856 32.2335 13.9952 32.4209C14.0102 32.7124 14.2512 32.9386 14.5397 32.9386C14.5491 32.9386 14.5586 32.9384 14.5681 32.9379C14.8691 32.9224 15.1005 32.6659 15.0851 32.3649C15.0764 32.1961 15.072 32.0185 15.072 31.8371V19.529C15.3997 19.5868 15.7362 19.6187 16.0802 19.6187H17.0357C19.1879 19.6187 21.105 18.4553 22.1055 16.6306C23.5449 18.8634 26.0539 20.3449 28.9025 20.3449C31.3495 20.3449 33.6914 19.6628 35.7115 18.3892V31.8371C35.7116 37.5284 31.0823 42.1587 25.3922 42.1587C20.6646 42.1587 16.5512 38.9628 15.3892 34.3867C15.315 34.0946 15.0179 33.918 14.7261 33.9921C14.434 34.0663 14.2573 34.3633 14.3315 34.6554C15.6165 39.7157 20.1648 43.25 25.3922 43.25C31.684 43.25 36.8029 38.1302 36.8029 31.8371V30.7531H37.9335C38.9618 30.7531 39.9288 30.3524 40.6562 29.6249C41.3837 28.8973 41.7844 27.9304 41.7844 26.9022C41.7844 24.7788 40.0568 23.0513 37.9335 23.0513V23.0513ZM12.8509 29.6618C11.3293 29.6618 10.0913 28.4238 10.0913 26.9022C10.0913 26.1655 10.3784 25.4726 10.8998 24.9512C11.4212 24.4298 12.114 24.1427 12.8508 24.1427H13.9807V29.6618H12.8509V29.6618ZM17.0358 18.5273H16.0803C13.4911 18.5273 11.3846 16.4208 11.3846 13.8316V13.7916C11.3846 11.2023 13.4911 9.0959 16.0803 9.0959H17.0358C18.5805 9.0959 20.0027 9.84126 20.8811 11.0995C20.8239 11.4849 20.8031 11.879 20.8218 12.2782C20.8235 13.3889 21.0507 14.4477 21.4596 15.4113C20.7948 17.2832 19.041 18.5273 17.0358 18.5273V18.5273ZM39.8845 28.8532C39.3631 29.3747 38.6703 29.6618 37.9335 29.6618H36.8029V24.1426H37.9335C39.4551 24.1426 40.6931 25.3805 40.6931 26.9022C40.6931 27.639 40.4059 28.3318 39.8845 28.8532V28.8532Z" fill="#F2F2F2"/>
<path d="M20.6963 30.8386C20.6963 31.14 20.9405 31.3843 21.2419 31.3843H25.401C26.7791 31.3867 28.0748 31.9247 29.0493 32.8992C29.1559 33.0057 29.2956 33.0591 29.4352 33.0591C29.5748 33.0591 29.7145 33.0058 29.8211 32.8992C30.0342 32.6861 30.0342 32.3406 29.8211 32.1276C28.6409 30.9475 27.0719 30.2959 25.402 30.293H21.242C20.9405 30.293 20.6963 30.5373 20.6963 30.8386V30.8386Z" fill="#F2F2F2"/>
<path d="M23.103 25.4494V22.8909C23.103 22.5895 22.8588 22.3452 22.5574 22.3452C22.256 22.3452 22.0117 22.5895 22.0117 22.8909V25.4494C22.0117 25.7508 22.256 25.9951 22.5574 25.9951C22.8588 25.9951 23.103 25.7508 23.103 25.4494Z" fill="#F2F2F2"/>
<path d="M30.5547 26.4072L28.5394 25.002C28.2921 24.8295 27.9521 24.8903 27.7797 25.1374C27.6074 25.3846 27.6681 25.7247 27.9152 25.8971L29.9305 27.3023C30.0257 27.3687 30.1344 27.4005 30.2421 27.4005C30.4145 27.4005 30.5841 27.319 30.6902 27.1668C30.8626 26.9197 30.8019 26.5796 30.5547 26.4072Z" fill="#F2F2F2"/>
<path d="M32.1011 31.9927C31.7997 31.9927 31.5555 32.237 31.5555 32.5383C31.5555 34.0251 30.3459 35.2347 28.8591 35.2347C28.5577 35.2347 28.3135 35.479 28.3135 35.7803C28.3135 36.0817 28.5577 36.326 28.8591 36.326C30.9476 36.326 32.6468 34.6269 32.6468 32.5383C32.6468 32.237 32.4025 31.9927 32.1011 31.9927Z" fill="#F2F2F2"/>
<path d="M29.3037 37.957C29.3037 38.2584 29.5479 38.5027 29.8494 38.5027C32.5046 38.5027 34.6648 36.3426 34.6648 33.6873C34.6648 33.3859 34.4206 33.1416 34.1191 33.1416C33.8177 33.1416 33.5735 33.3859 33.5735 33.6873C33.5735 35.7407 31.9028 37.4114 29.8494 37.4114C29.5479 37.4114 29.3037 37.6557 29.3037 37.957Z" fill="#F2F2F2"/>
</svg>
